    28
 1 LA -0.000210613 -0.0409763 6.03262e-05 284
 2 O 1.88861 0.859188 -1.56543 22 10 11
 3 O 0.000623371 -1.35906 -2.27314 22 20 21
 4 O -1.88466 0.862978 -1.56793 22 24 25
 5 O -1.88841 -1.84662 0.000986916 22 18 19
 6 O -1.88829 0.865983 1.56198 22 12 13
 7 O 1.88712 0.863944 1.56478 22 14 15
 8 O 0.00244268 3.18715 -0.00339891 22 22 23
 9 O 1.88629 -1.84982 0.00408049 22 16 17
 10 H 1.94549 0.735391 -2.5263 23 2
 11 H 2.69337 1.34471 -1.32408 23 2
 12 H -2.69175 1.35302 1.31934 23 6
 13 H -1.94624 0.743418 2.52294 23 6
 14 H 1.9441 1.75838 1.93701 23 7
 15 H 2.69086 0.411719 1.86667 23 7
 16 H 1.94253 -2.62003 0.5918 23 9
 17 H 2.69109 -1.88426 -0.536958 23 9
 18 H -2.69332 -1.879 0.541992 23 5
 19 H -1.94524 -2.61814 -0.58495 23 5
 20 H 0.537463 -2.13348 -2.50433 23 3
 21 H -0.534613 -1.17593 -3.06141 23 3
 22 H -0.534306 3.77747 0.548694 23 8
 23 H 0.540108 3.77537 -0.556842 23 8
 24 H -1.94036 1.75629 -1.94306 23 4
 25 H -2.68862 0.41068 -1.86907 23 4
 26 O -0.00283216 -1.35022 2.27782 22 27 28
 27 H -0.5393 -2.12385 2.5125 23 26
 28 H 0.533577 -1.16431 3.06463 23 26
