    28
 1 LA -6.40304e-05 0.000180449 0.00324015 284
 2 O 1.55096 -1.88688 0.931704 22 10 11
 3 O 2.29366 -0.00324756 -1.2788 22 20 21
 4 O 1.55353 1.88639 0.928132 22 24 25
 5 O 0.0275744 1.88484 -1.80589 22 18 19
 6 O -1.57604 1.89005 0.881729 22 12 13
 7 O -1.57894 -1.88537 0.887052 22 14 15
 8 O -0.0379939 0.00311897 2.58108 22 22 23
 9 O 0.0244009 -1.88987 -1.80174 22 16 17
 10 H 2.51366 -1.944 0.8232 23 2
 11 H 1.30195 -2.69069 1.41494 23 2
 12 H -1.34109 2.69445 1.37096 23 6
 13 H -2.53494 1.94775 0.743898 23 6
 14 H -1.96524 -1.94059 1.77561 23 7
 15 H -1.87368 -2.68999 0.431695 23 7
 16 H -0.551091 -1.94762 -2.58102 23 9
 17 H 0.565888 -2.69474 -1.82606 23 9
 18 H -0.512825 2.68968 -1.84839 23 5
 19 H 0.625618 1.94015 -2.56818 23 5
 20 H 2.53702 -0.541606 -2.04841 23 3
 21 H 3.07895 0.532345 -1.0843 23 3
 22 H -0.599317 0.541027 3.16156 23 8
 23 H 0.506078 -0.533394 3.17902 23 8
 24 H 1.91452 1.94385 1.82714 23 4
 25 H 1.8618 2.68947 0.479067 23 4
 26 O -2.25687 0.000242363 -1.34179 22 27 28
 27 H -2.47929 0.535192 -2.12008 23 26
 28 H -3.04654 -0.535798 -1.16727 23 26
