    28
 1 LA 6.8793e-05 0.000192091 -0.0338531 284
 2 O -1.56304 -1.88748 -0.940547 22 10 11
 3 O -2.27659 -0.00233103 1.27824 22 20 21
 4 O -1.56555 1.88579 -0.939523 22 24 25
 5 O -0.00376774 1.88609 1.77419 22 18 19
 6 O 1.56436 1.88944 -0.934286 22 12 13
 7 O 1.56717 -1.88598 -0.937063 22 14 15
 8 O 0.00338991 0.00116154 -2.16198 22 22 23
 9 O -0.000660942 -1.88862 1.77258 22 16 17
 10 H -2.52423 -1.94452 -0.819352 23 2
 11 H -1.32041 -2.69162 -1.42646 23 2
 12 H 1.323 2.69351 -1.42093 23 6
 13 H 2.52499 1.94722 -0.809118 23 6
 14 H 1.94176 -1.94181 -1.83058 23 7
 15 H 1.86788 -2.6903 -0.485071 23 7
 16 H 0.58503 -1.94585 2.54427 23 9
 17 H -0.541784 -2.69347 1.80457 23 9
 18 H 0.537146 2.69095 1.80903 23 5
 19 H -0.591733 1.94193 2.54425 23 5
 20 H -2.50981 -0.540159 2.05136 23 3
 21 H -3.06438 0.533138 1.09372 23 3
 22 H 0.557032 0.538665 -2.75015 23 8
 23 H -0.5485 -0.535753 -2.75234 23 8
 24 H -1.93833 1.94263 -1.83375 23 4
 25 H -1.86788 2.68917 -0.486992 23 4
 26 O 2.27437 0.00114673 1.28138 22 27 28
 27 H 2.50701 0.536626 2.05631 23 26
 28 H 3.06168 -0.535023 1.09686 23 26
