    28
 1 LA 6.5618e-05 0.000185212 -0.0100433 284
 2 O -1.55999 -1.88714 -0.922703 22 10 11
 3 O -2.28097 -0.00285597 1.29442 22 20 21
 4 O -1.56252 1.88613 -0.92021 22 24 25
 5 O -0.00982841 1.88537 1.79872 22 18 19
 6 O 1.56736 1.88979 -0.904495 22 12 13
 7 O 1.57019 -1.88563 -0.908742 22 14 15
 8 O 0.0122261 0.00228499 -2.48814 22 22 23
 9 O -0.00670415 -1.88933 1.79564 22 16 17
 10 H -2.52158 -1.94423 -0.804748 23 2
 11 H -1.31573 -2.69109 -1.40812 23 2
 12 H 1.32762 2.69405 -1.39163 23 6
 13 H 2.52756 1.94753 -0.77609 23 6
 14 H 1.94777 -1.94111 -1.80103 23 7
 15 H 1.86939 -2.69012 -0.456062 23 7
 16 H 0.576401 -1.94686 2.56926 23 9
 17 H -0.547929 -2.69419 1.8255 23 9
 18 H 0.530963 2.69022 1.83568 23 5
 19 H -0.600368 1.94091 2.56682 23 5
 20 H -2.51678 -0.540988 2.06655 23 3
 21 H -3.06814 0.532684 1.10748 23 3
 22 H 0.567832 0.54002 -3.07425 23 8
 23 H -0.537683 -0.5344 -3.08055 23 8
 24 H -1.9323 1.94333 -1.81565 23 4
 25 H -1.86637 2.68934 -0.468378 23 4
 26 O 2.26996 0.000628663 1.3128 22 27 28
 27 H 2.5 0.535805 2.08871 23 26
 28 H 3.05787 -0.535467 1.1307 23 26
