    28
 1 LA 6.61472e-05 0.0001868 -0.0134448 284
 2 O -1.56109 -1.88722 -0.924049 22 10 11
 3 O -2.2794 -0.00272844 1.29376 22 20 21
 4 O -1.56361 1.88605 -0.921912 22 24 25
 5 O -0.00765296 1.88555 1.79515 22 18 19
 6 O 1.56628 1.8897 -0.909959 22 12 13
 7 O 1.56911 -1.88571 -0.91385 22 14 15
 8 O 0.00906375 0.00201352 -2.44155 22 22 23
 9 O -0.00453505 -1.88916 1.79242 22 16 17
 10 H -2.52253 -1.9443 -0.804934 23 2
 11 H -1.31741 -2.69122 -1.40968 23 2
 12 H 1.32596 2.69392 -1.39689 23 6
 13 H 2.52664 1.94745 -0.782714 23 6
 14 H 1.94561 -1.94128 -1.80658 23 7
 15 H 1.86885 -2.69017 -0.461454 23 7
 16 H 0.579499 -1.94661 2.56535 23 9
 17 H -0.545724 -2.69402 1.82302 23 9
 18 H 0.533183 2.6904 1.83139 23 5
 19 H -0.597269 1.94116 2.56395 23 5
 20 H -2.51428 -0.540787 2.06622 23 3
 21 H -3.06679 0.532794 1.10771 23 3
 22 H 0.563964 0.539692 -3.02838 23 8
 23 H -0.541558 -0.534728 -3.03326 23 8
 24 H -1.93447 1.94316 -1.81692 23 4
 25 H -1.86691 2.6893 -0.469792 23 4
 26 O 2.27154 0.000754607 1.30667 22 27 28
 27 H 2.50252 0.536004 2.08225 23 26
 28 H 3.05924 -0.53536 1.12367 23 26
