    28
 1 LA -0.000206379 -0.0511804 5.92679e-05 284
 2 O 1.8884 0.849809 -1.56522 22 10 11
 3 O 0.000949344 -1.36873 -2.27345 22 20 21
 4 O -1.88487 0.852681 -1.56772 22 24 25
 5 O -1.88797 -1.85728 0.000563045 22 18 19
 6 O -1.88851 0.854954 1.56219 22 12 13
 7 O 1.8869 0.853834 1.56499 22 14 15
 8 O 0.00174787 3.32694 -0.00277183 22 22 23
 9 O 1.88674 -1.85956 0.00365767 22 16 17
 10 H 1.94531 0.72625 -2.52612 23 2
 11 H 2.69304 1.33548 -1.32376 23 2
 12 H -2.69208 1.34185 1.31966 23 6
 13 H -1.94642 0.732151 2.52312 23 6
 14 H 1.94367 1.74819 1.93743 23 7
 15 H 2.69076 0.401734 1.86678 23 7
 16 H 1.94317 -2.6299 0.591198 23 9
 17 H 2.69155 -1.89369 -0.537389 23 9
 18 H -2.69287 -1.88999 0.541561 23 5
 19 H -1.94461 -2.62868 -0.585554 23 5
 20 H 0.537977 -2.14297 -2.50482 23 3
 21 H -0.534332 -1.18555 -3.06167 23 3
 22 H -0.535145 3.917 0.549459 23 8
 23 H 0.539271 3.91542 -0.556077 23 8
 24 H -1.94079 1.74607 -1.94265 23 4
 25 H -2.68873 0.400257 -1.86897 23 4
 26 O -0.00251042 -1.36096 2.27751 22 27 28
 27 H -0.53879 -2.13477 2.51201 23 26
 28 H 0.533854 -1.1751 3.06437 23 26
