    28
 1 LA -0.000212729 -0.0375748 6.03262e-05 284
 2 O 1.88873 0.862173 -1.56553 22 10 11
 3 O 0.000446626 -1.3559 -2.273 22 20 21
 4 O -1.88454 0.866461 -1.56803 22 24 25
 5 O -1.88865 -1.84296 0.00117954 22 18 19
 6 O -1.88818 0.8698 1.56189 22 12 13
 7 O 1.88724 0.867263 1.56468 22 14 15
 8 O 0.00281946 3.14055 -0.00368307 22 22 23
 9 O 1.88605 -1.84666 0.00427258 22 16 17
 10 H 1.94559 0.738266 -2.52638 23 2
 11 H 2.69356 1.34762 -1.32423 23 2
 12 H -2.69156 1.35692 1.31919 23 6
 13 H -1.94613 0.747344 2.52286 23 6
 14 H 1.94434 1.76173 1.93682 23 7
 15 H 2.69092 0.414964 1.86663 23 7
 16 H 1.94219 -2.61683 0.592074 23 9
 17 H 2.69085 -1.88127 -0.536762 23 9
 18 H -2.69356 -1.87519 0.542189 23 5
 19 H -1.94558 -2.61454 -0.584675 23 5
 20 H 0.537183 -2.13041 -2.5041 23 3
 21 H -0.534766 -1.17279 -3.06129 23 3
 22 H -0.533851 3.731 0.548347 23 8
 23 H 0.540563 3.72864 -0.557189 23 8
 24 H -1.94013 1.75974 -1.94325 23 4
 25 H -2.68856 0.414237 -1.86912 23 4
 26 O -0.00300679 -1.34658 2.27796 22 27 28
 27 H -0.539576 -2.12011 2.51272 23 26
 28 H 0.533428 -1.16065 3.06475 23 26
