    28
 1 LA -0.000238659 -0.0239691 6.19137e-05 284
 2 O 1.89016 0.871547 -1.56618 22 10 11
 3 O -0.00173993 -1.34395 -2.27203 22 20 21
 4 O -1.88309 0.881999 -1.56868 22 24 25
 5 O -1.89163 -1.82627 0.00250354 22 18 19
 6 O -1.88671 0.88763 1.56123 22 12 13
 7 O 1.88869 0.878927 1.56402 22 14 15
 8 O 0.00746828 2.95414 -0.00562251 22 22 23
 9 O 1.88307 -1.83613 0.00559287 22 16 17
 10 H 1.94682 0.746845 -2.52695 23 2
 11 H 2.69579 1.35585 -1.32524 23 2
 12 H -2.6893 1.37588 1.31818 23 6
 13 H -1.94487 0.765972 2.52229 23 6
 14 H 1.94725 1.77357 1.93551 23 7
 15 H 2.69164 0.425536 1.86629 23 7
 16 H 1.93795 -2.60596 0.593957 23 9
 17 H 2.6878 -1.87245 -0.535418 23 9
 18 H -2.69659 -1.85678 0.543538 23 5
 19 H -1.94982 -2.59818 -0.582787 23 5
 20 H 0.53373 -2.11951 -2.50257 23 3
 21 H -0.536656 -1.16054 -3.06045 23 3
 22 H -0.528235 3.54587 0.545977 23 8
 23 H 0.54617 3.54095 -0.559559 23 8
 24 H -1.93722 1.77509 -1.94456 23 4
 25 H -2.68785 0.430869 -1.86944 23 4
 26 O -0.0051653 -1.3313 2.27892 22 27 28
 27 H -0.542997 -2.10378 2.51424 23 26
 28 H 0.531574 -1.14568 3.06557 23 26
