    28
 1 LA 0.00696291 0.000159812 -6.40304e-05 284
 2 O -0.890179 -1.88574 1.57067 22 10 11
 3 O 1.33827 -0.00496157 2.26541 22 20 21
 4 O -0.88172 1.88752 1.57315 22 24 25
 5 O 1.81868 1.8825 -0.0115408 22 18 19
 6 O -0.90296 1.89118 -1.5567 22 12 13
 7 O -0.913178 -1.88422 -1.55946 22 14 15
 8 O -2.72109 0.00676289 0.0187625 22 22 23
 9 O 1.80962 -1.8922 -0.0146048 22 16 17
 10 H -0.760967 -1.94303 2.5308 23 2
 11 H -1.37971 -2.68893 1.33217 23 2
 12 H -1.38597 2.69621 -1.31123 23 6
 13 H -0.785811 1.94873 -2.51835 23 6
 14 H -1.80994 -1.9383 -1.92647 23 7
 15 H -0.465329 -2.68942 -1.86397 23 7
 16 H 2.57621 -1.95093 -0.606804 23 9
 17 H 1.84461 -2.69711 0.526235 23 9
 18 H 1.85052 2.6873 -0.552736 23 5
 19 H 2.59379 1.93682 0.569887 23 5
 20 H 2.11227 -0.54431 2.49209 23 3
 21 H 1.16147 0.530862 3.05473 23 3
 22 H -3.31287 0.545426 -0.529886 23 8
 23 H -3.30782 -0.528996 0.575632 23 8
 24 H -1.77264 1.94611 1.95348 23 4
 25 H -0.42507 2.69001 1.87163 23 4
 26 O 1.30291 -0.00144942 -2.28542 22 27 28
 27 H 2.07689 0.532508 -2.52461 23 26
 28 H 1.11068 -0.537248 -3.07112 23 26
